<svg width="14px" height="19px" viewBox="0 0 14 19" version="1.1" xmlns="http://www.w3.org/2000/svg" xmlns:xlink="http://www.w3.org/1999/xlink">
    <g id="LP" stroke="none" stroke-width="1" fill="none" fill-rule="evenodd">
        <g id="Gerchik-Product-Page-1366x700" transform="translate(-933.000000, -3962.000000)" fill-rule="nonzero" fill="#F3F5F8">
            <g id="block-6" transform="translate(0.000000, 3496.000000)">
                <g id="1" transform="translate(93.000000, 245.000000)">
                    <g id="text" transform="translate(327.000000, 61.000000)">
                        <g id="hw" transform="translate(506.000000, 154.000000)">
                            <g id="icon-1" transform="translate(0.000000, 2.000000)">
                                <g id="passed" transform="translate(7.700000, 4.900000)">
                                    <polygon id="Shape" points="7.5682454 0.972222222 7.5682454 0 5.40382822 0 5.40382822 0.972222222 3.528 0.972222222 3.528 2.91666667 9.408 2.91666667 9.408 0.972222222"></polygon>
                                    <path d="M10.09008,2.33333333 L10.09008,4.34660767 L2.22264,4.34660767 L2.22264,2.33333333 L0,2.33333333 L0,17.5 L12.348,17.5 L12.348,2.33333333 L10.09008,2.33333333 Z M2.646,12.3042035 L6.174,12.3042035 L6.174,13.3108407 L2.646,13.3108407 L2.646,12.3042035 Z M9.702,11.2975664 L2.646,11.2975664 L2.646,10.2909292 L9.702,10.2909292 L9.702,11.2975664 Z M9.702,9.28429204 L2.646,9.28429204 L2.646,8.27765487 L9.702,8.27765487 L9.702,9.28429204 Z" id="Shape"></path>
                                </g>
                            </g>
                        </g>
                    </g>
                </g>
            </g>
        </g>
    </g>
</svg>