<svg width="18px" height="21px" viewBox="0 0 18 21" version="1.1" xmlns="http://www.w3.org/2000/svg" xmlns:xlink="http://www.w3.org/1999/xlink">
    <g id="LP" stroke="none" stroke-width="1" fill="none" fill-rule="evenodd">
        <g id="Gerchik-Product-Page-1366x700" transform="translate(-177.000000, -1646.000000)" fill-rule="nonzero" fill="#45BDFF">
            <g id="block-3" transform="translate(0.000000, 1396.000000)">
                <g id="text" transform="translate(163.000000, 239.000000)">
                    <g id="line-1">
                        <g id="1">
                            <g id="shield" transform="translate(14.000000, 11.000000)">
                                <path d="M17.3979569,3.28076724 C13.8149224,3.28076724 11.0699569,2.25707759 8.7487931,0 C6.42787069,2.25707759 3.68302586,3.28076724 0.100293103,3.28076724 C0.100293103,9.15865517 -1.1159569,17.5786897 8.74873276,20.99825 C18.6141466,17.57875 17.3979569,9.15871552 17.3979569,3.28076724 Z M8.03231897,13.6242328 L5.15091379,10.7424052 L6.44102586,9.45235345 L8.03231897,11.0440086 L11.0568621,8.01940517 L12.3469138,9.3094569 L8.03231897,13.6242328 Z" id="Shape"></path>
                            </g>
                        </g>
                    </g>
                </g>
            </g>
        </g>
    </g>
</svg>