<svg width="24px" height="24px" viewBox="0 0 24 24" version="1.1" xmlns="http://www.w3.org/2000/svg" xmlns:xlink="http://www.w3.org/1999/xlink">
    <g id="LP" stroke="none" stroke-width="1" fill="none" fill-rule="evenodd">
        <g id="Gerchik-Product-Page-1366x700" transform="translate(-1186.000000, -12318.000000)" fill-rule="nonzero" fill="#515151">
            <g id="footer" transform="translate(0.000000, 12255.000000)">
                <g id="menu" transform="translate(93.000000, 59.000000)">
                    <g id="social" transform="translate(1093.000000, 4.000000)">
                        <g id="facebook-logo">
                            <path d="M12,0 C5.3725,0 0,5.3725 0,12 C0,18.62775 5.3725,24 12,24 C18.6275,24 24,18.62775 24,12 C24,5.3725 18.6275,0 12,0 Z M14.84225,8.2925 L13.038,8.2925 C12.8245,8.2925 12.58675,8.57275 12.58675,8.94825 L12.58675,10.251 L14.842,10.251 L14.842,12.108 L12.58675,12.108 L12.58675,17.6845 L10.45675,17.6845 L10.45675,12.108 L8.526,12.108 L8.526,10.251 L10.45675,10.251 L10.45675,9.158 C10.45675,7.59075 11.54475,6.316 13.03775,6.316 L14.842,6.316 L14.84225,8.2925 L14.84225,8.2925 Z" id="fb-inactive"></path>
                        </g>
                    </g>
                </g>
            </g>
        </g>
    </g>
</svg>