<?xml version="1.0" encoding="utf-8"?>
<svg version="1.1" id="Слой_1" xmlns="http://www.w3.org/2000/svg" xmlns:xlink="http://www.w3.org/1999/xlink" x="0px" y="0px"
	 viewBox="0 0 15 17" width="15" height="17" style="enable-background:new 0 0 15 17;" xml:space="preserve">
<g transform="translate(-492 -290)">
	<g>
		<path id="a" style="fill:#1DACFB;" d="M503.5,294.5c0,2.5-2,4.5-4.4,4.5c-2.5,0-4.4-2-4.4-4.5c0-2.4,2-4.4,4.4-4.5
			C501.5,290,503.5,292,503.5,294.5z M507,306.5c0,0.3-0.2,0.5-0.5,0.5c0,0,0,0,0,0h-14c-0.3,0-0.5-0.2-0.5-0.5c0,0,0,0,0,0
			c0-1.7,0.7-3.4,1.9-4.7c1.2-1.3,2.9-2,4.6-2h2c1.7,0,3.4,0.7,4.6,2C506.3,303.1,507,304.7,507,306.5z"/>
	</g>
</g>
</svg>
