<svg width="18px" height="18px" viewBox="0 0 18 18" version="1.1" xmlns="http://www.w3.org/2000/svg" xmlns:xlink="http://www.w3.org/1999/xlink">
    <g id="LP" stroke="none" stroke-width="1" fill="none" fill-rule="evenodd">
        <g id="Gerchik-Product-Page-1366x700" transform="translate(-612.000000, -3330.000000)" fill-rule="nonzero" fill="#1DACFB">
            <g id="block-5" transform="translate(0.000000, 2796.000000)">
                <g id="list" transform="translate(612.000000, 229.000000)">
                    <g id="check-marks" transform="translate(0.000000, 1.000000)">
                        <g id="check-mark-5" transform="translate(0.000000, 304.000000)">
                            <path d="M15.3636364,15.3636364 C18.8787879,11.8484848 18.8787879,6.15151515 15.3636364,2.63636364 C11.8484848,-0.878787879 6.15151515,-0.878787879 2.63636364,2.63636364 C-0.878787879,6.15151515 -0.878787879,11.8484848 2.63636364,15.3636364 C6.15151515,18.8787879 11.8521579,18.8787879 15.3636364,15.3636364 Z M5.77318641,7.62442608 L7.79706152,9.64830119 L12.2304867,5.21854913 L13.7988981,6.78696051 L9.36914601,11.2167126 L7.79706152,12.785124 L6.22865014,11.2167126 L4.20477502,9.19283747 L5.77318641,7.62442608 Z" id="Shape"></path>
                        </g>
                    </g>
                </g>
            </g>
        </g>
    </g>
</svg>